{
  "data":{
    "endRow":10,
    "firstPage":1,
    "hasNextPage":true,
    "hasPreviousPage":false,
    "isFirstPage":true,
    "isLastPage":false,
    "lastPage":2,
    "list":[
      {
        "taskId":"01100000A",
        "taskName":"系统1客户表迁移到中间库",
        "taskType":"1"
      },
      {
        "taskId":"01100001A",
        "taskName":"系统1客户子表迁移到中间库",
        "taskType":"1"
      },
      {
        "taskId":"01100002A",
        "taskName":"系统2客户表迁移到中间库",
        "taskType":"1"
      },
      {
        "taskId":"01100003A",
        "taskName":"系统2客户子表迁移到中间库",
        "taskType":"1"
      },
      {
        "taskId":"04100000A",
        "taskName":"中间库客户表到最终库",
        "taskType":"4"
      },
      {
        "taskId":"04100001A",
        "taskName":"中间库客户子表到最终库",
        "taskType":"4"
      },
      {
        "taskId":"01100004A",
        "taskName":"交易库product表到中间库",
        "taskType":"1"
      },
      {
        "taskId":"01100005A",
        "taskName":"交易库厂商表到中间库",
        "taskType":"1"
      },
      {
        "taskId":"03100001A",
        "taskName":"产品表&厂商表主从关联",
        "taskType":"3"
      },
      {
        "taskId":"04100002A",
        "taskName":"中间库产品表到最终库",
        "taskType":"4"
      }
    ],
    "navigateFirstPage":1,
    "navigateLastPage":2,
    "navigatePages":8,
    "navigatepageNums":[1,2],
    "nextPage":2,
    "pageNum":1,
    "pageSize":10,
    "pages":2,
    "prePage":0,
    "size":10,
    "startRow":1,
    "total":14
  },
  "msg":"交易成功",
  "status":"000000"
}