{
  "data":{
    "endRow":5,
    "firstPage":1,
    "hasNextPage":true,
    "hasPreviousPage":false,
    "isFirstPage":true,
    "isLastPage":false,
    "lastPage":2,
    "list":[
      {
        "context":"{\"database\":\"transfer2\",\"password\":\"rain\",\"port\":3306,\"host\":\"127.0.0.1\",\"userName\":\"root\"}",
        "createBy":"USER1",
        "createDt":"20191108",
        "id":"0FBA4ABFD7DD486D9347ED55339121EB",
        "name":"数据迁移旧元库",
        "type":"MySQL",
        "updateBy":"USER1",
        "updateDt":"20191202"
      },
      {
        "context":"{\"path\":\"D:\\\\DEV\\\\jy_workspace\\\\.metadata\",\"charset\":\"GBK\",\"fileName\":\"version.ini\",\"format\":\"ini\"}",
        "createBy":"USER1",
        "createDt":"20190704",
        "descr":"本地数据源开发测试",
        "id":"10A9DABFF6954F6EBE080F85769E40AB",
        "name":"文件数据源开发",
        "type":"Local File",
        "updateBy":"USER1",
        "updateDt":"20191107"
      },
      {
        "context":"{\"database\":\"metatransfer\",\"password\":\"rain\",\"port\":3306,\"host\":\"127.0.0.1\",\"userName\":\"root\"}",
        "createBy":"USER1",
        "createDt":"20191218",
        "id":"21FD1C827ED54267B63106D3C52B24DC",
        "name":"测试迁移元库",
        "type":"MySQL"
      },
      {
        "context":"{\"database\":\"kfdb\",\"password\":\"password\",\"port\":1521,\"host\":\"192.168.20.38\",\"userName\":\"td\"}",
        "createBy":"USER1",
        "createDt":"20190725",
        "descr":"数据迁移项目的核心数据库连接",
        "id":"5063919EE44D49BCBADFA192ABC5C644",
        "name":"数据迁移oracle元库",
        "type":"Oracle"
      },
      {
        "context":"{\"database\":\"transfermiddle\",\"password\":\"rain\",\"port\":3306,\"host\":\"127.0.0.1\",\"userName\":\"root\"}",
        "createBy":"USER1",
        "createDt":"20191207",
        "id":"AEB44DEA06524EDABD5C0A5F7510E636",
        "name":"数据迁移中间库",
        "type":"MySQL"
      }
    ],
    "navigateFirstPage":1,
    "navigateLastPage":2,
    "navigatePages":8,
    "navigatepageNums":[1,2],
    "nextPage":2,
    "pageNum":1,
    "pageSize":5,
    "pages":2,
    "prePage":0,
    "size":5,
    "startRow":1,
    "total":9
  },
  "msg":"交易成功",
  "status":"000000"
}