{
  "data":{
    "endRow":5,
    "firstPage":1,
    "hasNextPage":true,
    "hasPreviousPage":false,
    "isFirstPage":true,
    "isLastPage":false,
    "lastPage":3,
    "list":[
      {
        "author":"zhangjing",
        "cateId":"27CCB41BD7E04B18B2E3F9DD8E56F471",
        "createBy":"USER1",
        "createDt":"20191220",
        "delFlag":"0",
        "enable":"1",
        "icon":"Datasource",
        "id":"C9109249654D4804B26B2BF75C402B20",
        "mainClass":"com.csii.deepWater.scala.plugins.source.ElasticSearchSourcePlugin",
        "name":"ElasticSearch数据源",
        "ptype":"0",
        "updateBy":"USER1",
        "updateDt":"20191220",
        "version":"0.2"
      },
      {
        "author":"zz",
        "cateId":"27CCB41BD7E04B18B2E3F9DD8E56F471",
        "createBy":"USER1",
        "createDt":"20191107",
        "delFlag":"0",
        "enable":"1",
        "icon":"",
        "id":"E3A9421F0C44473F91850D4E64977C23",
        "mainClass":"package com.csii.deepWater.scala.plugins.source.NoInteractiveExcelSourcePlugin",
        "name":"Excel数据源",
        "ptype":"0",
        "version":"0.2"
      },
      {
        "author":"zz",
        "cateId":"27CCB41BD7E04B18B2E3F9DD8E56F471",
        "createBy":"USER1",
        "createDt":"20191107",
        "delFlag":"0",
        "enable":"1",
        "icon":"",
        "id":"C15CD5DAD8C1495499A4BCAEA6FB12EC",
        "mainClass":"com.csii.deepWater.scala.plugins.source.HBaseSourcePlugin",
        "name":"HBase数据源",
        "version":"0.2"
      },
      {
        "author":"rain",
        "cateId":"27CCB41BD7E04B18B2E3F9DD8E56F471",
        "createBy":"USER1",
        "createDt":"20191107",
        "delFlag":"0",
        "enable":"1",
        "icon":"",
        "id":"CED324151A3F49A896F0DB0C0034759B",
        "mainClass":"com.csii.mongodbplugin",
        "name":"mongodb数据源",
        "version":"0.1"
      },
      {
        "author":"zz",
        "cateId":"27CCB41BD7E04B18B2E3F9DD8E56F471",
        "createBy":"USER1",
        "createDt":"20191107",
        "delFlag":"0",
        "enable":"1",
        "icon":"Datasource",
        "id":"4C95A26DB6EC4993A2AF529E957DC3EC",
        "mainClass":"com.csii.deepWater.scala.plugins.source.NonInteractiveJdbcSourcePlugin",
        "name":"关系数据库源",
        "version":".02"
      }
    ],
    "navigateFirstPage":1,
    "navigateLastPage":3,
    "navigatePages":8,
    "navigatepageNums":[1,2,3],
    "nextPage":2,
    "pageNum":1,
    "pageSize":5,
    "pages":3,
    "prePage":0,
    "size":5,
    "startRow":1,
    "total":13
  },
  "msg":"交易成功",
  "status":"000000"
}