{
  "data":{
    "endRow":10,
    "firstPage":1,
    "hasNextPage":true,
    "hasPreviousPage":false,
    "isFirstPage":true,
    "isLastPage":false,
    "lastPage":7,
    "list":[
      {
        "classId":"DT_SYS_TYPE",
        "createBy":"USER1",
        "createDt":"20190710100722",
        "id":"640855B659144AFBBBB245AD3F9CF07E",
        "paraDesc":"数据迁移系统类别",
        "paraName":"中间库",
        "paraValue":"2"
      },
      {
        "classId":"DT_SYS_TYPE",
        "createBy":"USER1",
        "createDt":"20190710090758",
        "id":"3AC8B4CADB1141F89740E571EC647845",
        "paraDesc":"数据迁移系统类别",
        "paraName":"目标库",
        "paraValue":"1"
      },
      {
        "classId":"DT_SYS_TYPE",
        "createBy":"USER1",
        "createDt":"20190710090736",
        "id":"FAA13B7CACDF46DC9C1E2FBAC75B3455",
        "paraDesc":"数据迁移系统类别",
        "paraName":"源库",
        "paraValue":"0"
      },
      {
        "classId":"GPLOT_NODE_SYS_ARGUMENT",
        "createBy":"USER1",
        "createDt":"20190515030559",
        "id":"02EB3B576BA64D38947126D31DBCAC58",
        "paraDesc":"拓扑图节点配置所支持的常量",
        "paraName":"上2月初",
        "paraValue":"%last2monthbegin%"
      },
      {
        "classId":"GPLOT_NODE_SYS_ARGUMENT",
        "createBy":"USER1",
        "createDt":"20190515030558",
        "id":"8825C5A46152412290281F6C7435D181",
        "paraDesc":"拓扑图节点配置所支持的常量",
        "paraName":"三季末",
        "paraValue":"%quarter_3_end%"
      },
      {
        "classId":"GPLOT_NODE_SYS_ARGUMENT",
        "createBy":"USER1",
        "createDt":"20190515030557",
        "id":"0B6001040DCE491E999BB69288320FA5",
        "paraDesc":"拓扑图节点配置所支持的常量",
        "paraName":"今年年份",
        "paraValue":"%sysyear%"
      },
      {
        "classId":"GPLOT_NODE_SYS_ARGUMENT",
        "createBy":"USER1",
        "createDt":"20190515030556",
        "id":"DC20AE7326C844B6B50E4421607E4509",
        "paraDesc":"拓扑图节点配置所支持的常量",
        "paraName":"四季初",
        "paraValue":"%quarter_4_begin%",
        "updateBy":"USER1",
        "updateDt":"20190515030509"
      },
      {
        "classId":"GPLOT_NODE_SYS_ARGUMENT",
        "createBy":"USER1",
        "createDt":"20190515030554",
        "id":"76D74BC73BDB4986BDE3C682DF470E97",
        "paraDesc":"拓扑图节点配置所支持的常量",
        "paraName":"下季末",
        "paraValue":"%nextquarterend%"
      },
      {
        "classId":"GPLOT_NODE_SYS_ARGUMENT",
        "createBy":"USER1",
        "createDt":"20190515030554",
        "id":"9464448891C94FBF8EF26E18D95F08DB",
        "paraDesc":"拓扑图节点配置所支持的常量",
        "paraName":"上年上月末",
        "paraValue":"%lasty_lastmonthend%"
      },
      {
        "classId":"GPLOT_NODE_SYS_ARGUMENT",
        "createBy":"USER1",
        "createDt":"20190515030553",
        "id":"695BB6C3943D43D5953165513036CE1D",
        "paraDesc":"拓扑图节点配置所支持的常量",
        "paraName":"年末",
        "paraValue":"%yearend%"
      }
    ],
    "navigateFirstPage":1,
    "navigateLastPage":7,
    "navigatePages":8,
    "navigatepageNums":[1,2,3,4,5,6,7],
    "nextPage":2,
    "pageNum":1,
    "pageSize":10,
    "pages":7,
    "prePage":0,
    "size":10,
    "startRow":1,
    "total":67
  },
  "msg":"交易成功",
  "status":"000000"
}